{ "authenticationMethod": "none",
   "welcomeFile": "/webapp/index.html",
     "headerWhiteList": [
   "ToMailAddress", "USERID", "MailBodyScore", "ScoreLevel", "ScoreText", "Scale1", "Scale2", "Scale3", "Scale4", "Scale5"
   ], 
  "routes": [
    {
      "path": "/resources",
      "target": {
        "type": "service",
        "name": "sapui5",
        "entryPath": "/resources"
      },
      "description": "SAPUI5 Resources"
    },
    {
      "path": "/test-resources",
      "target": {
        "type": "service",
        "name": "sapui5",
        "entryPath": "/test-resources"
      },
      "description": "SAPUI5 Test Resources"
    },
     {
      "path": "/SAPCloudIntegration",
      "target": {
        "type": "destination",
        "name": "SAPCloudIntegration"
      },
      "description": "SAP Cloud Integration"
    },
    {
      "path": "/vragenlijst",
      "target": {
        "type": "destination",
        "name": "vragenlijst"
      },
      "description": "vragenlijst"
    }
  ],
  "sendWelcomeFileRedirect": true
}